…
# Count the number of AIANNH per congressional district
state_counts <- aiannh %>%
  group_by(LSAD) %>%
  summarize(count = n())

print(state_counts[order(-state_counts$count),])
```

    ## Simple feature collection with 26 features and 2 fields
    ## Geometry type: GEOMETRY
    ## Dimension:     XY
    ## Bounding box:  xmin: -174.236 ymin: 18.91069 xmax: -67.03552 ymax: 71.34019
    ## Geodetic CRS:  NAD83
    ## # A tibble: 26 × 3
    ##    LSAD  count                                                          geometry
    ##    <chr> <int>                                                <MULTIPOLYGON [°]>
    ##  1 79      221 (((-166.5331 65.33918, -166.5331 65.33906, -166.533 65.33699, -1…
    ##  2 86      206 (((-83.38811 35.46645, -83.38342 35.46596, -83.38316 35.46593, -…
    ##  3 OT      155 (((-92.32972 47.81374, -92.3297 47.81305, -92.32967 47.81196, -9…
    ##  4 78       75 (((-155.729 20.02457, -155.7288 20.02428, -155.7288 20.02427, -1…
    ##  5 85       46 (((-122.3355 37.95215, -122.3354 37.95206, -122.3352 37.95199, -…
    ##  6 92       35 (((-93.01356 31.56287, -93.01354 31.56251, -93.01316 31.56019, -…
    ##  7 88       25 (((-97.35299 36.908, -97.35291 36.90801, -97.35287 36.908, -97.3…
    ##  8 96       19 (((-116.48 32.63814, -116.48 32.63718, -116.4794 32.63716, -116.…
    ##  9 84       16 (((-105.5937 36.40379, -105.5937 36.40324, -105.5937 36.40251, -…
    ## 10 89       11 (((-95.91705 41.28037, -95.91653 41.28036, -95.91653 41.28125, -…
    ## # ℹ 16 more rows
…
