…
    Rows: 344 Columns: 8
    ── Column specification ────────────────────────────────────────────────────────
    Delimiter: ","
    chr (3): species, island, sex
    dbl (5): bill_length_mm, bill_depth_mm, flipper_length_mm, body_mass_g, year

    ℹ Use `spec()` to retrieve the full column specification for this data.
    ℹ Specify the column types or set `show_col_types = FALSE` to quiet this message.

``` r
penguins_df
```

    # A tibble: 344 × 8
       species island    bill_length_mm bill_depth_mm flipper_length_mm body_mass_g
       <chr>   <chr>              <dbl>         <dbl>             <dbl>       <dbl>
     1 Adelie  Torgersen           39.1          18.7               181        3750
     2 Adelie  Torgersen           39.5          17.4               186        3800
     3 Adelie  Torgersen           40.3          18                 195        3250
     4 Adelie  Torgersen           NA            NA                  NA          NA
     5 Adelie  Torgersen           36.7          19.3               193        3450
     6 Adelie  Torgersen           39.3          20.6               190        3650
     7 Adelie  Torgersen           38.9          17.8               181        3625
     8 Adelie  Torgersen           39.2          19.6               195        4675
     9 Adelie  Torgersen           34.1          18.1               193        3475
    10 Adelie  Torgersen           42            20.2               190        4250
    # ℹ 334 more rows
    # ℹ 2 more variables: sex <chr>, year <dbl>
…
    New names:
    Rows: 344 Columns: 9
    ── Column specification
    ──────────────────────────────────────────────────────── Delimiter: "," chr
    (3): species, island, sex dbl (6): ...1, bill_length_mm, bill_depth_mm,
    flipper_length_mm, body_mass_g...
    ℹ Use `spec()` to retrieve the full column specification for this data. ℹ
    Specify the column types or set `show_col_types = FALSE` to quiet this message.
    • `` -> `...1`

``` r
penguins_df
```

    # A tibble: 344 × 9
        ...1 species island    bill_length_mm bill_depth_mm flipper_length_mm
       <dbl> <chr>   <chr>              <dbl>         <dbl>             <dbl>
     1     0 Adelie  Torgersen           39.1          18.7               181
     2     1 Adelie  Torgersen           39.5          17.4               186
     3     2 Adelie  Torgersen           40.3          18                 195
     4     3 Adelie  Torgersen           NA            NA                  NA
     5     4 Adelie  Torgersen           36.7          19.3               193
     6     5 Adelie  Torgersen           39.3          20.6               190
     7     6 Adelie  Torgersen           38.9          17.8               181
     8     7 Adelie  Torgersen           39.2          19.6               195
     9     8 Adelie  Torgersen           34.1          18.1               193
    10     9 Adelie  Torgersen           42            20.2               190
    # ℹ 334 more rows
    # ℹ 3 more variables: body_mass_g <dbl>, sex <chr>, year <dbl>
…
    New names:
    Rows: 344 Columns: 9
    ── Column specification
    ──────────────────────────────────────────────────────── Delimiter: "," chr
    (3): species, island, sex dbl (6): ...1, bill_length_mm, bill_depth_mm,
    flipper_length_mm, body_mass_g...
    ℹ Use `spec()` to retrieve the full column specification for this data. ℹ
    Specify the column types or set `show_col_types = FALSE` to quiet this message.
    • `` -> `...1`

``` r
penguins_df
```

    # A tibble: 344 × 9
        ...1 species island    bill_length_mm bill_depth_mm flipper_length_mm
       <dbl> <chr>   <chr>              <dbl>         <dbl>             <dbl>
     1     0 Adelie  Torgersen           39.1          18.7               181
     2     1 Adelie  Torgersen           39.5          17.4               186
     3     2 Adelie  Torgersen           40.3          18                 195
     4     3 Adelie  Torgersen           NA            NA                  NA
     5     4 Adelie  Torgersen           36.7          19.3               193
     6     5 Adelie  Torgersen           39.3          20.6               190
     7     6 Adelie  Torgersen           38.9          17.8               181
     8     7 Adelie  Torgersen           39.2          19.6               195
     9     8 Adelie  Torgersen           34.1          18.1               193
    10     9 Adelie  Torgersen           42            20.2               190
    # ℹ 334 more rows
    # ℹ 3 more variables: body_mass_g <dbl>, sex <chr>, year <dbl>
…
Go ahead and take a look at those files to see what they look like! One
way to do so is by using a terminal and the command
`head /path/to/penguins/file`.

### Load serialized data

``` r
penguins_rds_path = file.path(data_dir, "penguins.rds")

# Unserialize penguin data
penguins_from_serial_df <- readRDS(penguins_rds_path)
penguins_from_serial_df
```

    # A tibble: 344 × 9
        ...1 species island    bill_length_mm bill_depth_mm flipper_length_mm
       <dbl> <chr>   <chr>              <dbl>         <dbl>             <dbl>
     1     0 Adelie  Torgersen           39.1          18.7               181
     2     1 Adelie  Torgersen           39.5          17.4               186
     3     2 Adelie  Torgersen           40.3          18                 195
     4     3 Adelie  Torgersen           NA            NA                  NA
     5     4 Adelie  Torgersen           36.7          19.3               193
     6     5 Adelie  Torgersen           39.3          20.6               190
     7     6 Adelie  Torgersen           38.9          17.8               181
     8     7 Adelie  Torgersen           39.2          19.6               195
     9     8 Adelie  Torgersen           34.1          18.1               193
    10     9 Adelie  Torgersen           42            20.2               190
    # ℹ 334 more rows
    # ℹ 3 more variables: body_mass_g <dbl>, sex <chr>, year <dbl>
…
